<?xml version="1.0" encoding="UTF-8"?>
<session version="1.0">
<refactoring comment="Delete resource &apos;Trackerapp&apos;" deleteContents="false" description="Delete resource &apos;Trackerapp&apos;" element1="/Trackerapp" flags="7" id="org.eclipse.ltk.core.refactoring.delete.resources" resources="1" stamp="1602621182461"/>
</session>