<?xml version="1.0" encoding="UTF-8"?>
<session version="1.0">
<refactoring comment="Copy 3 elements to &apos;pages&apos;&#x0D;&#x0A;- Original project: &apos;securitytest&apos;&#x0D;&#x0A;- Destination element: &apos;pages&apos;&#x0D;&#x0A;- Original elements:&#x0D;&#x0A;     index.jsp&#x0D;&#x0A;     User.jsp&#x0D;&#x0A;     Admin.jsp" description="Copy files" element1="src/main/webapp/index.jsp" element2="src/main/webapp/User.jsp" element3="src/main/webapp/Admin.jsp" files="3" flags="589830" folders="0" id="org.eclipse.jdt.ui.copy" policy="org.eclipse.jdt.ui.copyResources" stamp="1591465949550" target="/BootWebApp/src/main/webapp/pages" units="0" version="1.0"/>
</session>