INDEX VERSION 1.4+C:\Users\Home\eclipse-workspace\.metadata\.plugins\org.eclipse.wst.jsdt.core\indexes
769448213.index
2538112282.index
2350410011.index
4293184055.index
1716026130.index
65432381.index
985808835.index
1869193190.index
