<?xml version="1.0" encoding="UTF-8"?>
<session version="1.0">
<refactoring comment="Rename type &apos;com.test.A&apos; to &apos;B&apos;&#x0D;&#x0A;- Original project: &apos;Test&apos;&#x0D;&#x0A;- Original element: &apos;com.test.A&apos;&#x0D;&#x0A;- Renamed element: &apos;com.test.B&apos;&#x0D;&#x0A;- Update references to refactored element&#x0D;&#x0A;- Update textual occurrences in comments and strings" description="Rename type &apos;A&apos;" flags="589830" id="org.eclipse.jdt.ui.rename.type" input="/src&lt;com.test{A.java[A" matchStrategy="1" name="B" qualified="false" references="true" similarDeclarations="false" stamp="1583175643977" textual="false" version="1.0"/>
</session>